[
    {
        "@context": "http://schema.org",
        "@type": "FlightReservation",
        "airplaneSeat": "5A",
        "modifiedTime": "2018-03-05T17:05:00+01:00",
        "passengerSequenceNumber": "17",
        "reservationFor": {
            "@type": "Flight",
            "airline": {
                "@type": "Airline",
                "iataCode": "LH",
                "name": "Lufthansa"
            },
            "arrivalAirport": {
                "@type": "Airport",
                "address": {
                    "@type": "PostalAddress",
                    "addressCountry": "DE"
                },
                "geo": {
                    "@type": "GeoCoordinates",
                    "latitude": 52.55379867553711,
                    "longitude": 13.29319953918457
                },
                "iataCode": "TXL",
                "name": "BERLIN"
            },
            "boardingTime": {
                "@type": "QDateTime",
                "@value": "2018-03-06T17:05:00+01:00",
                "timezone": "Europe/Berlin"
            },
            "departureAirport": {
                "@type": "Airport",
                "address": {
                    "@type": "PostalAddress",
                    "addressCountry": "DE"
                },
                "geo": {
                    "@type": "GeoCoordinates",
                    "latitude": 48.35390090942383,
                    "longitude": 11.786100387573242
                },
                "iataCode": "MUC",
                "name": "MUNICH"
            },
            "departureDay": "2018-03-06",
            "departureGate": "G20",
            "flightNumber": "2724"
        },
        "reservationNumber": "XXX007",
        "reservationStatus": "http://schema.org/ReservationConfirmed",
        "reservedTicket": {
            "@type": "Ticket",
            "ticketToken": "aztecCode:M1DOE/JOHN            EXXX007 MUCTXLLH 2724 065M005A0017 35D>6180WW8064BLH              2A22012345678900 LH                        N*30600000K09         "
        },
        "underName": {
            "@type": "Person",
            "familyName": "Doe",
            "givenName": "John",
            "name": "John Doe"
        }
    }
]
